// Jest Snapshot v1, https://goo.gl/fbAQLP

exports[`Testt if Link has Received all the props properly should render correctly 1`] = `
<a
  href="mockUrl"
  onClick={[Function]}
>
  mockTitle
</a>
`;
